"Morning",,,"早上，上午",,OXE1AM1U1
"Afternoon",,,"下午",,OXE1AM1U1
"Book",,,"书",,OXE1AM1U2
"ruler",,,"尺",,OXE1AM1U2
"pencil",,,"铅笔",,OXE1AM1U2
"rubber",,,"橡皮",,OXE1AM1U2
"eye",,,"眼睛",,OXE1AM1U3
"mouth",,,"嘴巴",,OXE1AM1U3
"face",,,"脸",,OXE1AM1U3
"nose",,,"鼻子",,OXE1AM1U3
"ear",,,"耳朵",,OXE1AM1U3
"dance",,,"跳舞",,OXE1AM2U1
"read",,,"读书",,OXE1AM2U1
"sing",,,"唱歌",,OXE1AM2U1
"draw",,,"画画",,OXE1AM2U1
"grandfather",,,"祖父",,OXE1AM2U2
"grandmother",,,"祖母",,OXE1AM2U2
"father",,,"父亲",,OXE1AM2U2
"mother",,,"母亲",,OXE1AM2U2
"me",,,"我",,OXE1AM2U2
"fat",,,"胖的",,OXE1AM2U3
"thin",,,"瘦的",,OXE1AM2U3
"tall",,,"高的",,OXE1AM2U3
"short",,,"矮的",,OXE1AM2U3
"one",,,"一",,OXE1AM3U1
"two",,,"二",,OXE1AM3U1
"three",,,"三",,OXE1AM3U1
"four",,,"四",,OXE1AM3U1
"five",,,"五",,OXE1AM3U1
"six",,,"六",,OXE1AM3U1
"apple",,,"苹果",,OXE1AM3U2
"pear",,,"梨",,OXE1AM3U2
"peach",,,"桃子",,OXE1AM3U2
"orange",,,"橘子，橙子",,OXE1AM3U2
"hamburger",,,"汉堡",,OXE1AM3U3
"pizza",,,"披萨饼",,OXE1AM3U3
"cake",,,"蛋糕",,OXE1AM3U3
"pie",,,"馅饼",,OXE1AM3U3
"chick",,,"小鸡",,OXE1AM4U1
"duck",,,"鸭子",,OXE1AM4U1
"cow",,,"奶牛",,OXE1AM4U1
"pig",,,"猪",,OXE1AM4U1
"bear",,,"熊",,OXE1AM4U2
"tiger",,,"老虎",,OXE1AM4U2
"monkey",,,"猴子",,OXE1AM4U2
"panda",,,"熊猫",,OXE1AM4U2
"red",,,"红色",,OXE1AM4U3
"blue",,,"蓝色",,OXE1AM4U3
"yellow",,,"黄色",,OXE1AM4U3
"green",,,"绿色",,OXE1AM4U3
"frog",,,"青蛙",,OXE1BM1U1
"rabbit",,,"兔子",,OXE1BM1U1
"bee",,,"蜜蜂",,OXE1BM1U1
"bird",,,"鸟",,OXE1BM1U1
"sheep",,,"羊，绵羊",,OXE1BM1U2
"hen",,,"母鸡",,OXE1BM1U2
"dog",,,"狗",,OXE1BM1U2
"cat",,,"猫",,OXE1BM1U2
"rice",,,"米饭，饭",,OXE1BM1U3
"soup",,,"汤",,OXE1BM1U3
"egg",,,"鸡蛋，蛋",,OXE1BM1U3
"noodles",,,"面条",,OXE1BM1U3
"ball",,,"球",,OXE1BM2U1
"doll",,,"洋娃娃",,OXE1BM2U1
"bicycle",,,"自行车",,OXE1BM2U1
"kite",,,"风筝",,OXE1BM2U1
"jelly",,,"果冻",,OXE1BM2U2
"ice cream",,,"冰激凌",,OXE1BM2U2
"sweet",,,"糖果",,OXE1BM2U2
"biscuit",,,"饼干",,OXE1BM2U2
"cola",,,"可乐",,OXE1BM2U3
"juice",,,"果汁",,OXE1BM2U3
"milk",,,"牛奶",,OXE1BM2U3
"water",,,"水",,OXE1BM2U3
"warm",,,"温暖的",,OXE1BM3U1
"hot",,,"热的",,OXE1BM3U1
"spring",,,"春天",,OXE1BM3U1
"summer",,,"夏天",,OXE1BM3U1
"sunny",,,"晴朗的",,OXE1BM3U2
"cloudy",,,"多云的",,OXE1BM3U2
"rainy",,,"下雨的",,OXE1BM3U2
"windy",,,"刮风的，多风的，风大的",,OXE1BM3U2
"T-shirt",,,"短袖圆领汗衫(运动衫)",,OXE1BM3U3
"dress",,,"连衣裙",,OXE1BM3U3
"shorts",,,"宽松运动短裤",,OXE1BM3U3
"blouse",,,"女士上衣(有钮扣)",,OXE1BM3U3
"ride",,,"骑(自行车，马)",,OXE1BM4U1
"skip",,,"跳，跳绳",,OXE1BM4U1
"play",,,"玩(游戏)，打(球)，踢(球)，打(牌),下(棋)",,OXE1BM4U1
"fly",,,"飞",,OXE1BM4U1
"gift",,,"礼物",,OXE1BM4U2
"card",,,"贺卡",,OXE1BM4U2
"firecracker",,,"爆竹，鞭炮",,OXE1BM4U2
"firework",,,"烟火，烟花",,OXE1BM4U2
"boy",,,"男孩儿",,OXE1BM4U3
"wolf",,,"狼",,OXE1BM4U3
"farmer",,,"农民",,OXE1BM4U3
"Morning",,,"早上，上午",,OXE2AM1U1
"Aftenoon",,,"下午",,OXE2AM1U1
"evening",,,"傍晚;晚上",,OXE2AM1U1
"night",,,"夜;晚上",,OXE2AM1U1
"boy",,,"男孩儿",,OXE2AM1U2
"girl",,,"女孩儿",,OXE2AM1U2
"big",,,"大的",,OXE2AM1U2
"small",,,"小的",,OXE2AM1U2
"seven",,,"七",,OXE2AM1U3
"eight",,,"八",,OXE2AM1U3
"nine",,,"九",,OXE2AM1U3
"ten",,,"十",,OXE2AM1U3
"run",,,"跑",,OXE2AM2U1
"write",,,"写，写字",,OXE2AM2U1
"swim",,,"游泳",,OXE2AM2U1
"fly",,,"飞",,OXE2AM2U1
"old",,,"年长的，老的",,OXE2AM2U2
"young",,,"年轻的",,OXE2AM2U2
"hair",,,"头发",,OXE2AM2U3
"head",,,"头",,OXE2AM2U3
"face",,,"脸",,OXE2AM2U3
"slide",,,"滑滑梯",,OXE2AM3U1
"swing",,,"秋千",,OXE2AM3U1
"seesaw",,,"跷跷板",,OXE2AM3U1
"bag",,,"书包，包",,OXE2AM3U2
"box",,,"盒子",,OXE2AM3U2
"desk",,,"书桌",,OXE2AM3U2
"chair",,,"椅子",,OXE2AM3U2
"kitchen",,,"厨房",,OXE2AM3U3
"bowl",,,"碗",,OXE2AM3U3
"spoon",,,"调羹，勺子",,OXE2AM3U3
"chopsticks",,,"筷子",,OXE2AM3U3
"sun",,,"太阳",,OXE2AM4U1
"moon",,,"月亮",,OXE2AM4U1
"star",,,"星星",,OXE2AM4U1
"fox",,,"狐狸",,OXE2AM4U2
"hippo",,,"河马",,OXE2AM4U2
"meat",,,"肉",,OXE2AM4U2
"grass",,,"草",,OXE2AM4U2
"flower",,,"花，花朵",,OXE2AM4U3
"tree",,,"树",,OXE2AM4U3
"pick",,,"采，摘",,OXE2AM4U3
"climb",,,"爬，攀登，登上",,OXE2AM4U3
"white",,,"白色",,OXE2BM1U1
"purple",,,"紫色",,OXE2BM1U1
"pink",,,"粉红色",,OXE2BM1U1
"orange",,,"橘黄色",,OXE2BM1U1
"brown",,,"棕色，咖啡色",,OXE2BM1U1
"black",,,"黑色",,OXE2BM1U1
"watch",,,"手表",,OXE2BM1U2
"bag",,,"包，书包",,OXE2BM1U2
"soft",,,"软的，柔软的",,OXE2BM1U2
"hard",,,"硬的",,OXE2BM1U2
"rough",,,"粗糙的",,OXE2BM1U2
"smooth",,,"光滑的",,OXE2BM1U2
"train",,,"火车",,OXE2BM1U3
"bus",,,"公交车",,OXE2BM1U3
"car",,,"汽车，轿车",,OXE2BM1U3
"van",,,"有盖小货车，箱形客货两用车",,OXE2BM1U3
"bicycle",,,"自行车",,OXE2BM1U3
"ship",,,"船,舰",,OXE2BM1U3
"run",,,"跑",,OXE2BM2U1
"skate",,,"溜冰，滑冰",,OXE2BM2U1
"hop",,,"单脚跳",,OXE2BM2U1
"skip",,,"跳，跳绳",,OXE2BM2U1
"ride a bicycle",,,"骑自行车",,OXE2BM2U1
"salad",,,"沙拉，色拉",,OXE2BM2U2
"carrot",,,"胡萝卜",,OXE2BM2U2
"fish",,,"鱼",,OXE2BM2U2
"chicken",,,"鸡肉",,OXE2BM2U2
"banana",,,"香蕉",,OXE2BM2U2
"giraffe",,,"长颈鹿",,OXE2BM2U3
"snake",,,"蛇",,OXE2BM2U3
"elephant",,,"大象",,OXE2BM2U3
"zebra",,,"斑马",,OXE2BM2U3
"autumn",,,"秋天",,OXE2BM3U1
"winter",,,"冬天",,OXE2BM3U1
"cool",,,"凉爽的",,OXE2BM3U1
"cold",,,"寒冷的",,OXE2BM3U1
"stop",,,"停下，停止",,OXE2BM3U2
"go",,,"走，行走",,OXE2BM3U2
"wait",,,"等待",,OXE2BM3U2
"light",,,"灯;(交通)灯",,OXE2BM3U2
"trousers",,,"裤子",,OXE2BM3U3
"sweater",,,"毛衣，套头毛衣",,OXE2BM3U3
"shirt",,,"衬衫",,OXE2BM3U3
"coat",,,"大衣",,OXE2BM3U3
"play football",,,"踢足球",,OXE2BM4U1
"play basketball",,,"打篮球",,OXE2BM4U1
"play ping-pong",,,"打乒乓",,OXE2BM4U1
"play cards",,,"打牌",,OXE2BM4U1
"letter",,,"信，信件",,OXE2BM4U2
"balloon",,,"气球",,OXE2BM4U2
"carnation",,,"康乃馨",,OXE2BM4U2
"hungry",,,"饿的，饥饿的",,OXE2BM4U3
"thirsty",,,"渴的",,OXE2BM4U3
"bread",,,"面包",,OXE2BM4U3
"milk",,,"牛奶",,OXE2BM4U3
"Miss",,,"小姐",,OXE3AM1U1
"Mr",,,"先生",,OXE3AM1U1
"Mrs",,,"太太",,OXE3AM1U1
"stand up",,,"起立",,OXE3AM1U2
"sit down",,,"坐下",,OXE3AM1U2
"open",,,"打开",,OXE3AM1U2
"close",,,"关上",,OXE3AM1U2
"door",,,"门",,OXE3AM1U2
"name",,,"名字",,OXE3AM1U2
"book",,,"书",,OXE3AM1U2
"white",,,"白色的",,OXE3AM1U2
"one",,,"一",,OXE3AM1U3
"two",,,"二",,OXE3AM1U3
"three",,,"三",,OXE3AM1U3
"four",,,"四",,OXE3AM1U3
"five",,,"五",,OXE3AM1U3
"six",,,"六",,OXE3AM1U3
"seven",,,"七",,OXE3AM1U3
"eight",,,"八",,OXE3AM1U3
"nine",,,"九",,OXE3AM1U3
"ten",,,"十",,OXE3AM1U3
"today",,,"今天",,OXE3AM1U3
"fat",,,"胖的",,OXE3AM2U1
"thin",,,"瘦的，细的",,OXE3AM2U1
"tall",,,"高的",,OXE3AM2U1
"short",,,"矮的，短的",,OXE3AM2U1
"boy",,,"男孩",,OXE3AM2U1
"girl",,,"女孩",,OXE3AM2U1
"friend",,,"朋友",,OXE3AM2U1
"grandfather",,,"(外)祖父;爷爷，外公",,OXE3AM2U2
"grandmother",,,"(外)祖母;奶奶，外婆",,OXE3AM2U2
"father",,,"父亲",,OXE3AM2U2
"mother",,,"母亲",,OXE3AM2U2
"brother",,,"哥;弟",,OXE3AM2U2
"sister",,,"姐;妹",,OXE3AM2U2
"me",,,"我",,OXE3AM2U2
"eye",,,"眼睛",,OXE3AM2U3
"nose",,,"鼻子",,OXE3AM2U3
"hair",,,"头发",,OXE3AM2U3
"ear",,,"耳朵",,OXE3AM2U3
"mouth",,,"口，嘴巴",,OXE3AM2U3
"small",,,"小的",,OXE3AM2U3
"long",,,"长的",,OXE3AM2U3
"big",,,"大的",,OXE3AM2U3
"classroom",,,"教室",,OXE3AM3U1
"school",,,"学校",,OXE3AM3U1
"hall",,,"大厅",,OXE3AM3U1
"toilet",,,"厕所",,OXE3AM3U1
"library",,,"图书馆",,OXE3AM3U1
"office",,,"办公室",,OXE3AM3U1
"playground",,,"操场",,OXE3AM3U1
"apple",,,"苹果",,OXE3AM3U2
"orange",,,"橘子;adj.橙红色的",,OXE3AM3U2
"banana",,,"香蕉",,OXE3AM3U2
"peach",,,"桃子",,OXE3AM3U2
"boat",,,"小船",,OXE3AM3U3
"balloon",,,"气球",,OXE3AM3U3
"flower",,,"花",,OXE3AM3U3
"kite",,,"风筝",,OXE3AM3U3
"red",,,"红色的",,OXE3AM3U3
"orange",,,"橘子;adj.橙红色的",,OXE3AM3U3
"yellow",,,"黄色的",,OXE3AM3U3
"ladybird",,,"黄色的",,OXE3AM4U1
"bee",,,"蜜蜂",,OXE3AM4U1
"butterfly",,,"蝴蝶",,OXE3AM4U1
"ant",,,"蚂蚁",,OXE3AM4U1
"fly",,,"飞",,OXE3AM4U1
"black",,,"黑色的",,OXE3AM4U1
"chick",,,"小鸡",,OXE3AM4U2
"hen",,,"母鸡",,OXE3AM4U2
"duck",,,"鸭子",,OXE3AM4U2
"pig",,,"猪",,OXE3AM4U2
"dog",,,"狗",,OXE3AM4U2
"cat",,,"猫",,OXE3AM4U2
"leaf(leaves)",,,"叶子",,OXE3AM4U3
"branch",,,"树枝",,OXE3AM4U3
"trunk",,,"树干",,OXE3AM4U3
"root",,,"根",,OXE3AM4U3
"plant",,,"植物",,OXE3AM4U3
"green",,,"绿色的",,OXE3AM4U3
"pink",,,"粉红色的",,OXE3AM4U3
"beautiful",,,"漂亮的",,OXE3AM4U3
"aeroplane",,,"飞机",,OXE3BM1U1
"bus",,,"公交车",,OXE3BM1U1
"ship",,,"船，舰",,OXE3BM1U1
"car",,,"轿车，汽车",,OXE3BM1U1
"pineapple",,,"菠萝",,OXE3BM1U2
"cake",,,"蛋糕",,OXE3BM1U2
"bread",,,"面包",,OXE3BM1U2
"glass",,,"玻璃杯，玻璃",,OXE3BM1U2
"bag",,,"书包，包",,OXE3BM1U2
"sweet",,,"n.糖果;adj.甜的",,OXE3BM1U3
"lemon",,,"柠檬",,OXE3BM1U3
"sour",,,"酸的",,OXE3BM1U3
"salt",,,"盐",,OXE3BM1U3
"salty",,,"咸的",,OXE3BM1U3
"coffee",,,"咖啡",,OXE3BM1U3
"bitter",,,"苦的，有苦味的",,OXE3BM1U3
"tiger",,,"老虎",,OXE3BM2U1
"lion",,,"狮子",,OXE3BM2U1
"panda",,,"熊猫",,OXE3BM2U1
"monkey",,,"猴子",,OXE3BM2U1
"clever",,,"聪明的",,OXE3BM2U1
"strong",,,"强壮的",,OXE3BM2U1
"toytrain",,,"玩具火车",,OXE3BM2U2
"doll",,,"洋娃娃",,OXE3BM2U2
"skateboard",,,"滑板",,OXE3BM2U2
"robot",,,"机器人",,OXE3BM2U2
"lovely",,,"可爱的",,OXE3BM2U2
"hat",,,"帽子",,OXE3BM2U3
"scarf",,,"围巾",,OXE3BM2U3
"jacket",,,"夹克衫",,OXE3BM2U3
"a pair of gloves",,,"一副手套",,OXE3BM2U3
"a pair of socks",,,"一双袜了",,OXE3BM2U3
"a pair of shoes",,,"一双鞋子",,OXE3BM2U3
"funny",,,"可笑的，有趣的",,OXE3BM2U3
"his",,,"他的",,OXE3BM2U3
"circle",,,"圆形，圆圈",,OXE3BM3U1
"square",,,"正方形",,OXE3BM3U1
"triangle",,,"三角形",,OXE3BM3U1
"star",,,"星星",,OXE3BM3U1
"rectangle",,,"长方形",,OXE3BM3U1
"house",,,"房子",,OXE3BM3U1
"sky",,,"天空",,OXE3BM3U2
"sea",,,"大海",,OXE3BM3U2
"mountain",,,"山",,OXE3BM3U2
"river",,,"河流，河",,OXE3BM3U2
"plant a tree",,,"种树",,OXE3BM3U3
"have a picnic",,,"野餐",,OXE3BM3U3
"ice-skate",,,"溜冰",,OXE3BM3U3
"ski",,,"滑雪",,OXE3BM3U3
"body",,,"身体",,OXE3BM4U1
"head",,,"头",,OXE3BM4U1
"shoulder",,,"肩膀",,OXE3BM4U1
"arm",,,"手臂，胳膊",,OXE3BM4U1
"finger",,,"手指",,OXE3BM4U1
"hand",,,"手",,OXE3BM4U1
"knee",,,"膝盖",,OXE3BM4U1
"leg",,,"大腿",,OXE3BM4U1
"foot",,,"脚(单数)",,OXE3BM4U1
"feet",,,"脚(复数)",,OXE3BM4U1
"park",,,"公园",,OXE3BM4U2
"cinema",,,"电影院",,OXE3BM4U2
"zoo",,,"动物园",,OXE3BM4U2
"our",,,"我们的",,OXE3BM4U2
"class",,,"班级",,OXE3BM4U2
"party",,,"聚会",,OXE3BM4U2
"take a photograph",,,"拍照片",,OXE3BM4U2
"parent",,,"父母",,OXE3BM4U2
"eleven",,,"十一",,OXE4AM1U1
"twelve",,,"十二",,OXE4AM1U1
"thirteen",,,"十三",,OXE4AM1U1
"fourteen",,,"十四",,OXE4AM1U1
"fifteen",,,"十五",,OXE4AM1U1
"sixteen",,,"十六",,OXE4AM1U1
"classmate",,,"同学",,OXE4AM1U1
"paint",,,"用颜料画画",,OXE4AM1U2
"draw",,,"绘画",,OXE4AM1U2
"read",,,"阅读",,OXE4AM1U2
"write",,,"写，写字",,OXE4AM1U2
"swim",,,"游泳",,OXE4AM1U2
"jump",,,"跳",,OXE4AM1U2
"fast",,,"快，快速",,OXE4AM1U2
"picture",,,"照片;图画",,OXE4AM1U2
"very",,,"非常，很",,OXE4AM1U2
"well",,,"好",,OXE4AM1U2
"fly",,,"飞",,OXE4AM1U2
"high",,,"高，在高处",,OXE4AM1U2
"happy",,,"快乐的",,OXE4AM1U3
"hungry",,,"饿的",,OXE4AM1U3
"thirsty",,,"口渴的",,OXE4AM1U3
"sad",,,"难过的",,OXE4AM1U3
"full",,,"饱的",,OXE4AM1U3
"tired",,,"累的，疲倦的",,OXE4AM1U3
"new",,,"新的",,OXE4AM1U3
"back",,,"回来",,OXE4AM1U3
"biscuit",,,"饼干",,OXE4AM1U3
"then",,,"那么既然如此那时",,OXE4AM1U3
"uncle",,,"叔，舅，姨夫，姑父",,OXE4AM2U1
"aunt",,,"姑母，姨母，舅母，婶婶",,OXE4AM2U1
"cousin",,,"表兄妹，堂兄妹",,OXE4AM2U1
"police officer",,,"警察",,OXE4AM2U1
"doctor",,,"医生",,OXE4AM2U2
"nurse",,,"护士",,OXE4AM2U2
"teacher",,,"教师",,OXE4AM2U2
"student",,,"学生",,OXE4AM2U2
"firefighter",,,"消防员",,OXE4AM2U2
"cook",,,"厨师",,OXE4AM2U2
"bus driver",,,"公交车司机",,OXE4AM2U2
"coat",,,"外套",,OXE4AM2U3
"shirt",,,"衬衫",,OXE4AM2U3
"blouse",,,"女式衬衣",,OXE4AM2U3
"T-shirt",,,"T恤衫",,OXE4AM2U3
"skirt",,,"短裙",,OXE4AM2U3
"sweater",,,"毛衣，线衣",,OXE4AM2U3
"jeans",,,"牛仔裤",,OXE4AM2U3
"shorts",,,"短裤",,OXE4AM2U3
"pink",,,"粉红色的",,OXE4AM2U3
"friend",,,"朋友",,OXE4AM2U3
"canteen",,,"食堂",,OXE4AM3U1
"computer lab",,,"电脑房",,OXE4AM3U1
"office",,,"办公室",,OXE4AM3U1
"gum",,,"体育馆",,OXE4AM3U1
"behind",,,"在……后面",,OXE4AM3U1
"in front of",,,"在……前面",,OXE4AM3U1
"building",,,"大楼，建筑物",,OXE4AM3U1
"lesson",,,"课",,OXE4AM3U1
"lunch",,,"午餐",,OXE4AM3U1
"supermarket",,,"超市",,OXE4AM3U2
"post office",,,"邮局",,OXE4AM3U2
"restaurant",,,"餐馆",,OXE4AM3U2
"next to",,,"紧邻，在近旁",,OXE4AM3U2
"between",,,"在……中间",,OXE4AM3U2
"street",,,"街道",,OXE4AM3U2
"shop",,,"商店",,OXE4AM3U2
"near",,,"在……旁边，靠近",,OXE4AM3U2
"city",,,"城市",,OXE4AM3U2
"many",,,"许多",,OXE4AM3U2
"some",,,"一些",,OXE4AM3U2
"a packet of sweets",,,"一包糖果",,OXE4AM3U3
"a loaf of bread",,,"一条面包",,OXE4AM3U3
"a bowl of noodles",,,"一碗面条",,OXE4AM3U3
"a bar of chocolate",,,"一块巧克力",,OXE4AM3U3
"a packet of biscuits",,,"一包饼干",,OXE4AM3U3
"a bottle of water",,,"一瓶水",,OXE4AM3U3
"hay",,,"干草",,OXE4AM4U1
"grass",,,"草，草地",,OXE4AM4U1
"corn",,,"谷物",,OXE4AM4U1
"meat",,,"肉",,OXE4AM4U1
"Don't litter",,,"不要乱扔垃圾",,OXE4AM4U1
"Don't walk on the grass",,,"不要在草地上走",,OXE4AM4U1
"Don't pick flowers",,,"不要摘花",,OXE4AM4U1
"Don't throws tones",,,"不要乱扔石头",,OXE4AM4U1
"farm",,,"农场",,OXE4AM4U1
"rubbish",,,"垃圾",,OXE4AM4U1
"visit",,,"n.游览，参观",,OXE4AM4U1
"visit",,,"v.参观，拜访",,OXE4AM4U1
"bin",,,"垃圾箱",,OXE4AM4U1
"sketch book",,,"写生簿，素描簿",,OXE4AM4U2
"cap",,,"(有帽舌的)帽子",,OXE4AM4U2
"camera",,,"照相机",,OXE4AM4U2
"aviary",,,"鸟舍",,OXE4AM4U2
"fountain",,,"喷泉",,OXE4AM4U2
"pond",,,"池塘",,OXE4AM4U2
"far away",,,"距离远",,OXE4AM4U2
"road",,,"道路",,OXE4AM4U2
"take",,,"乘坐，拍照",,OXE4AM4U2
"sunny",,,"晴朗的",,OXE4AM4U3
"rainy",,,"多雨的",,OXE4AM4U3
"cloudy",,,"多云的",,OXE4AM4U3
"windy",,,"多风的",,OXE4AM4U3
"warm",,,"暖和的",,OXE4AM4U3
"hot",,,"热的",,OXE4AM4U3
"wet",,,"湿的",,OXE4AM4U3
"dry",,,"干燥的",,OXE4AM4U3
"January",,,"一月",,OXE4AM4U3
"February",,,"二月",,OXE4AM4U3
"March",,,"三月",,OXE4AM4U3
"April",,,"四月",,OXE4AM4U3
"May",,,"五月",,OXE4AM4U3
"June",,,"六月",,OXE4AM4U3
"July",,,"七月",,OXE4AM4U3
"August",,,"八月",,OXE4AM4U3
"September",,,"九月",,OXE4AM4U3
"October",,,"十月",,OXE4AM4U3
"November",,,"十一月",,OXE4AM4U3
"December",,,"十二月",,OXE4AM4U3
"China",,,"中国",,OXE4AM4U3
"Australia",,,"澳大利亚",,OXE4AM4U3
"always",,,"总是",,OXE4AM4U3
"watermelon",,,"西瓜",,OXE4BM1U1
"plum",,,"李子",,OXE4BM1U1
"grape",,,"葡萄",,OXE4BM1U1
"cherry",,,"樱桃",,OXE4BM1U1
"strawberry",,,"草莓",,OXE4BM1U1
"a glass of",,,"一杯",,OXE4BM1U1
"juice",,,"果汁",,OXE4BM1U1
"hard",,,"硬的",,OXE4BM1U2
"soft",,,"软的，柔软的",,OXE4BM1U2
"rough",,,"粗糙的",,OXE4BM1U2
"smooth",,,"光滑的",,OXE4BM1U2
"Sharp",,,"尖锐的",,OXE4BM1U2
"blunt",,,"钝的,不锋利的",,OXE4BM1U2
"thick",,,"厚的",,OXE4BM1U2
"thin",,,"瘦的",,OXE4BM1U2
"knife",,,"小刀",,OXE4BM1U2
"pencil",,,"铅笔",,OXE4BM1U2
"pencil case",,,"铅笔盒",,OXE4BM1U2
"hil",,,"小山;丘陵",,OXE4BM1U3
"lawn",,,"草坪,草地",,OXE4BM1U3
"path",,,"小径,小路",,OXE4BM1U3
"bench",,,"长凳，长椅",,OXE4BM1U3
"shadow",,,"荫，阴暗处，影子",,OXE4BM1U3
"(the)sun",,,"太阳",,OXE4BM1U3
"rise",,,"上升",,OXE4BM1U3
"high",,,"高的",,OXE4BM1U3
"at noon",,,"在中午",,OXE4BM1U3
"go down",,,"向下走",,OXE4BM1U3
"play football",,,"踢足球",,OXE4BM2U1
"play table tennis",,,"打网球",,OXE4BM2U1
"play volleyball",,,"打排球",,OXE4BM2U1
"play badminton",,,"打羽毛球",,OXE4BM2U1
"play basketball",,,"打篮球",,OXE4BM2U1
"sport",,,"运动",,OXE4BM2U1
"poster",,,"海报",,OXE4BM2U1
"join",,,"加入",,OXE4BM2U1
"club",,,"俱乐部",,OXE4BM2U1
"bone",,,"骨头",,OXE4BM2U2
"cat food",,,"猫食，猫粮",,OXE4BM2U2
"dog food",,,"狗粮",,OXE4BM2U2
"fish",,,"鱼",,OXE4BM2U2
"parrot",,,"鹦鹉",,OXE4BM2U2
"tortoise",,,"乌龟",,OXE4BM2U2
"cute",,,"可爱的",,OXE4BM2U2
"bedroom",,,"卧室",,OXE4BM2U3
"living room",,,"客厅",,OXE4BM2U3
"bathroom",,,"洗手间，厕所",,OXE4BM2U3
"kitchen",,,"厨房",,OXE4BM2U3
"homework",,,"回家作业，作业",,OXE4BM2U3
"model plane",,,"模型飞机",,OXE4BM2U3
"wash",,,"洗",,OXE4BM2U3
"dinner",,,"晚餐;正餐",,OXE4BM2U3
"quiet",,,"安静的",,OXE4BM3U1
"loud",,,"响的，大声的",,OXE4BM3U1
"bell",,,"凉铃，铃铛",,OXE4BM3U1
"television(TV)",,,"电视",,OXE4BM3U1
"sound",,,"声音",,OXE4BM3U1
"noisy",,,"吵闹的",,OXE4BM3U1
"ring",,,"V.响起铃声",,OXE4BM3U1
"watch TV",,,"看电视",,OXE4BM3U1
"seven o'clock",,,"七点",,OXE4BM3U2
"a quarter past seven",,,"七点一刻(7:15)",,OXE4BM3U2
"half past seven",,,"七点半(7:30)",,OXE4BM3U2
"a quarter to eight",,,"七点三刻(7:45)",,OXE4BM3U2
"get up",,,"起床",,OXE4BM3U2
"brush my teeth",,,"刷牙",,OXE4BM3U2
"wash my face",,,"洗脸",,OXE4BM3U2
"have breakfast",,,"吃早饭",,OXE4BM3U2
"always",,,"总是",,OXE4BM3U3
"usually",,,"通常地;惯常地",,OXE4BM3U3
"often",,,"经常",,OXE4BM3U3
"sometimes",,,"有时候",,OXE4BM3U3
"never",,,"从来不",,OXE4BM3U3
"Monday",,,"星期一",,OXE4BM3U3
"Tuesday",,,"星期二",,OXE4BM3U3
"Wednesday",,,"星期三",,OXE4BM3U3
"Thursday",,,"星期四",,OXE4BM3U3
"Friday",,,"星期五",,OXE4BM3U3
"Saturday",,,"星期六",,OXE4BM3U3
"Sunday",,,"星期天",,OXE4BM3U3
"Chinese chess",,,"中国象棋",,OXE4BM3U3
"at weekends",,,"在周末",,OXE4BM3U3
"piano",,,"钢琴",,OXE4BM4U1
"violin",,,"小提琴",,OXE4BM4U1
"triangle",,,"三角形",,OXE4BM4U1
"drum",,,"鼓",,OXE4BM4U1
"music",,,"音乐",,OXE4BM4U1
"the Spring Festival",,,"春节",,OXE4BM4U2
"the Dragon Boat Festival",,,"端午节",,OXE4BM4U2
"the Mid-autumn Festival",,,"中秋节",,OXE4BM4U2
"the Double Ninth Festival",,,"重阳节",,OXE4BM4U2
"festival",,,"节日",,OXE4BM4U2
"rice dumpling",,,"粽子",,OXE4BM4U2
"duckling",,,"小鸭子",,OXE4BM4U3
"swan",,,"天鹅",,OXE4BM4U3
"nest",,,"鸟巢，鸟窝",,OXE4BM4U3
"first",,,"第一",,OXE5AM1U1
"second",,,"第二",,OXE5AM1U1
"third",,,"第三",,OXE5AM1U1
"fourth",,,"第四",,OXE5AM1U1
"fifth",,,"第五",,OXE5AM1U1
"sixth",,,"第六",,OXE5AM1U1
"party",,,"聚会",,OXE5AM1U1
"begin",,,"开始",,OXE5AM1U1
"bring",,,"带来",,OXE5AM1U1
"wear",,,"穿，戴",,OXE5AM1U1
"favorite",,,"最喜欢的",,OXE5AM1U1
"taxi",,,"出租车",,OXE5AM1U2
"underground",,,"地铁",,OXE5AM1U2
"zebra crossing",,,"斑马线",,OXE5AM1U2
"traffic light(s)",,,"红绿灯，交通信号灯",,OXE5AM1U2
"pavement",,,"人行道",,OXE5AM1U2
"live",,,"住，居住",,OXE5AM1U2
"leave",,,"离开",,OXE5AM1U2
"by",,,"通过(表示方式、方法)",,OXE5AM1U2
"on foot",,,"步行",,OXE5AM1U2
"arrive (at)",,,"到达",,OXE5AM1U2
"cross",,,"穿过",,OXE5AM1U2
"worker",,,"工人",,OXE5AM1U3
"pilot",,,"飞行员",,OXE5AM1U3
"farmer",,,"农民",,OXE5AM1U3
"shop assistant",,,"营业员，销售员",,OXE5AM1U3
"fly",,,"飞",,OXE5AM1U3
"help ",,,"帮助",,OXE5AM1U3
"sick",,,"有病的，生病的",,OXE5AM1U3
"write an e-mail",,,"写电子邮件",,OXE5AM2U1
"go shopping",,,"去购物",,OXE5AM2U1
"play chess",,,"下(国际)象棋",,OXE5AM2U1
"once",,,"一次",,OXE5AM2U1
"twice",,,"两次",,OXE5AM2U1
"talk",,,"交谈，说话",,OXE5AM2U1
"(the) Internet",,,"互联网，因特网",,OXE5AM2U1
"same",,,"同样的，相同的",,OXE5AM2U2
"different",,,"不同的",,OXE5AM2U2
"both",,,"(两者)都",,OXE5AM2U2
"all",,,"所有的",,OXE5AM2U2
"class",,,"班级",,OXE5AM2U2
"each other",,,"互相",,OXE5AM2U2
"together",,,"一起",,OXE5AM2U2
"north",,,"北方，北边",,OXE5AM2U3
"south",,,"南方，南边",,OXE5AM2U3
"west",,,"西方，西边",,OXE5AM2U3
"east",,,"东方，东边",,OXE5AM2U3
"study",,,"学习",,OXE5AM2U3
"a lot of",,,"许多",,OXE5AM2U3
"hotel",,,"酒店，宾馆",,OXE5AM3U1
"bank",,,"银行",,OXE5AM3U1
"hospital",,,"医院",,OXE5AM3U1
"bakery",,,"面包店",,OXE5AM3U1
"museum",,,"博物馆",,OXE5AM3U1
"cinema",,,"电影院",,OXE5AM3U1
"along",,,"沿着",,OXE5AM3U1
"turn",,,"转弯",,OXE5AM3U1
"button",,,"纽扣",,OXE5AM3U2
"zip",,,"拉链",,OXE5AM3U2
"pocket",,,"口袋",,OXE5AM3U2
"need",,,"需要",,OXE5AM3U2
"put on",,,"穿上",,OXE5AM3U2
"try on",,,"试穿",,OXE5AM3U2
"fever",,,"发烧",,OXE5AM3U3
"toothache",,,"牙痛",,OXE5AM3U3
"cough",,,"咳嗽",,OXE5AM3U3
"cold",,,"感冒",,OXE5AM3U3
"well",,,"健康的，身体好的",,OXE5AM3U3
"medicine",,,"药",,OXE5AM3U3
"first",,,"首先",,OXE5AM4U1
"next",,,"其次，接下来",,OXE5AM4U1
"then",,,"然后",,OXE5AM4U1
"finally",,,"最后",,OXE5AM4U1
"tea",,,"茶",,OXE5AM4U1
"boil",,,"煮开，煮沸",,OXE5AM4U1
"pour",,,"倒出",,OXE5AM4U1
"drink",,,"喝",,OXE5AM4U1
"gently",,,"轻轻地",,OXE5AM4U2
"strongly",,,"猛烈地，强有力地",,OXE5AM4U2
"slowly",,,"缓慢地",,OXE5AM4U2
"quickly",,,"迅速地",,OXE5AM4U2
"blow",,,"吹，刮",,OXE5AM4U2
"happily",,,"开心地",,OXE5AM4U2
"smoke",,,"吸烟",,OXE5AM4U3
"start",,,"开始",,OXE5AM4U3
"campfire",,,"营火，篝火",,OXE5AM4U3
"match",,,"比赛，火柴",,OXE5AM4U3
"careful",,,"仔细的",,OXE5AM4U3
"safety",,,"安全",,OXE5AM4U3
"school bag",,,"书包",,OXE5BM1U1
"brush",,,"毛笔，画笔",,OXE5BM1U1
"paints",,,"绘画颜料",,OXE5BM1U1
"crayon",,,"蜡笔",,OXE5BM1U1
"notebook",,,"笔记本",,OXE5BM1U1
"glue",,,"胶水",,OXE5BM1U1
"Tape",,,"磁带",,OXE5BM1U1
"Put",,,"放，安置",,OXE5BM1U1
"egg",,,"卵，蛋",,OXE5BM1U2
"cocoon",,,"茧",,OXE5BM1U2
"caterpillar",,,"毛虫",,OXE5BM1U2
"chicken",,,"鸡肉",,OXE5BM1U2
"duckling",,,"小鸭子",,OXE5BM1U2
"puppy",,,"小狗",,OXE5BM1U2
"grow",,,"成长，生长",,OXE5BM1U2
"was",,,"am/is的过去式",,OXE5BM1U2
"were",,,"are的过去式",,OXE5BM1U2
"drill",,,"钻机，钻头",,OXE5BM1U3
"lorry",,,"卡车",,OXE5BM1U3
"motorbike",,,"有盖小货车，箱形客货两用车",,OXE5BM1U3
"outside",,,"自行车",,OXE5BM1U3
"sleep",,,"睡觉",,OXE5BM1U3
"another",,,"另一个",,OXE5BM1U3
"noise",,,"噪音",,OXE5BM1U3
"heard",,,"hear的过去式WW",,OXE5BM1U3
"sat",,,"sit的过去式",,OXE5BM1U3
"meat",,,"肉",,OXE5BM2U1
"pork",,,"猪肉",,OXE5BM2U1
"beef",,,"牛肉",,OXE5BM2U1
"chicken",,,"鸡肉",,OXE5BM2U1
"fish",,,"鱼，鱼肉",,OXE5BM2U1
"fruit",,,"水果",,OXE5BM2U1
"vegetable",,,"蔬菜",,OXE5BM2U1
"tomato",,,"番茄",,OXE5BM2U1
"potato",,,"土豆",,OXE5BM2U1
"carrot",,,"胡萝卜",,OXE5BM2U1
"cabbage",,,"卷心菜",,OXE5BM2U1
"bean",,,"豆子",,OXE5BM2U1
"rice",,,"米饭，饭",,OXE5BM2U1
"drink",,,"喝",,OXE5BM2U1
"milk",,,"牛奶",,OXE5BM2U1
"had",,,"have/has的过去式",,OXE5BM2U1
"fly",,,"飞翔，飞行",,OXE5BM2U1
"eat",,,"吃",,OXE5BM2U1
"healthy",,,"健康的",,OXE5BM2U1
"did",,,"do的过去式",,OXE5BM2U1
"keep……away",,,"不让接近(某人/某物)",,OXE5BM2U1
"ticket",,,"入场券",,OXE5BM2U2
"ticket office",,,"售票处",,OXE5BM2U2
"exit",,,"出口",,OXE5BM2U2
"entrance",,,"入口",,OXE5BM2U2
"seat",,,"座位",,OXE5BM2U2
"film",,,"电影",,OXE5BM2U2
"funny",,,"有趣的m",,OXE5BM2U2
"princess",,,"公主",,OXE5BM2U2
"see a film",,,"看电影",,OXE5BM2U2
"Chinese",,,"(学科)语文",,OXE5BM2U3
"English",,,"(学科)英语",,OXE5BM2U3
"Maths",,,"(学科)数学",,OXE5BM2U3
"Art",,,"(学科)美术",,OXE5BM2U3
"Music",,,"(学科)音乐",,OXE5BM2U3
"IT",,,"(学科)信息技术",,OXE5BM2U3
"PE",,,"(学科)体育",,OXE5BM2U3
"class",,,"课，课程",,OXE5BM2U3
"subject",,,"科目",,OXE5BM2U3
"telephone",,,"电话",,OXE5BM3U1
"smoking",,,"吸烟",,OXE5BM3U1
"swimming",,,"游泳",,OXE5BM3U1
"walk",,,"牵着(动物)走，遛",,OXE5BM3U1
"sign",,,"标志，指示牌",,OXE5BM3U1
"cloud",,,"云朵",,OXE5BM3U2
"rain",,,"雨",,OXE5BM3U2
"snow",,,"雪",,OXE5BM3U2
"snowy",,,"下雪的",,OXE5BM3U2
"storm",,,"暴风雨",,OXE5BM3U2
"stormy",,,"有暴风雨的",,OXE5BM3U2
"fog",,,"雾",,OXE5BM3U2
"foggy",,,"有雾的",,OXE5BM3U2
"yesterday",,,"昨天",,OXE5BM3U2
"degree",,,"度，度数(温度单位)",,OXE5BM3U2
"weather",,,"天气",,OXE5BM3U2
"make",,,"使，让",,OXE5BM3U2
"bookshelf",,,"书架",,OXE5BM3U3
"mirror",,,"镜子",,OXE5BM3U3
"cushion",,,"坐垫，靠垫",,OXE5BM3U3
"cupboard",,,"橱柜，衣柜",,OXE5BM3U3
"bed",,,"床",,OXE5BM3U3
"lamp",,,"台灯",,OXE5BM3U3
"sofa",,,"沙发",,OXE5BM3U3
"furniture",,,"家具",,OXE5BM3U3
"next",,,"紧随其后的，下一个的",,OXE5BM3U3
"give",,,"给",,OXE5BM3U3
"move",,,"改变位置，移动",,OXE5BM3U3
"window",,,"窗户",,OXE5BM3U3
"wall",,,"墙壁",,OXE5BM3U3
"science museum",,,"科技博物馆",,OXE5BM4U1
"art museum",,,"艺术博物馆",,OXE5BM4U1
"history museum",,,"历史博物馆",,OXE5BM4U1
"insect museum",,,"昆虫博物馆",,OXE5BM4U1
"car museum",,,"汽车博物馆",,OXE5BM4U1
"railway museum",,,"铁路博物馆",,OXE5BM4U1
"perform",,,"表演",,OXE5BM4U1
"dance",,,"跳舞",,OXE5BM4U1
"useful",,,"有用的",,OXE5BM4U1
"really",,,"非常，极其",,OXE5BM4U1
"Christmas",,,"圣诞节",,OXE5BM4U2
"Easter",,,"复活节",,OXE5BM4U2
"Halloween",,,"万圣节",,OXE5BM4U2
"Thanksgiving",,,"感恩节",,OXE5BM4U2
"find",,,"找到，发现",,OXE5BM4U2
"hide",,,"隐藏",,OXE5BM4U2
"holiday",,,"假期",,OXE5BM4U2
"present",,,"礼物",,OXE5BM4U2
"giant",,,"巨人",,OXE5BM4U3
"castle",,,"城堡",,OXE5BM4U3
